{
  "project" : "{{XPRESSO_PROJECT_NAME}}",
  "envrionment" : "prod",
  "rabbitmq_ip" : "172.16.3.1",
  "rabbitmq_port": "5672",
  "mysql_host": "172.16.3.3",
  "mysql_port" : 31831,
  "mysql_user": "root",
  "mysql_password" : "abz00ba1nc",
  "mysql_database" : "python_benchmark"
}